Home,Away
5,4
3,1
10,9
8,6
7,2
15,14
13,11
20,19
18,16
17,12
4,2
3,5
9,7
8,10
6,1
14,12
13,15
19,17
18,20
16,11
5,2
1,4
10,7
8,3
6,9
15,12
11,14
20,17
18,13
16,19
2,3
1,5
9,4
7,8
6,10
12,13
11,15
19,14
17,18
16,20
4,3
2,1
10,5
9,8
7,6
14,13
12,11
20,15
19,18
17,16
5,8
4,6
3,10
2,9
1,7
20,13
19,12
18,15
17,11
16,14
10,2
9,1
8,4
7,3
6,5
15,16
14,18
13,17
12,20
11,19
4,5
2,17
1,3
9,10
6,8
14,15
12,7
11,13
19,20
16,18
5,3
2,4
1,16
10,8
7,9
15,13
12,14
11,6
20,18
17,19
4,1
3,18
2,5
9,6
7,10
14,11
13,8
12,15
19,16
17,20
5,1
4,19
3,2
10,6
8,7
15,11
14,9
13,12
20,16
18,17
5,20
3,4
1,2
8,9
6,7
15,10
13,14
11,12
18,19
16,17