Home,Away
1,2
3,4
6,5
8,7
10,9
12,11
13,14
15,16
18,17
20,19
22,21
24,23
1,3
2,4
5,7
6,8
9,11
10,12
13,15
14,16
17,19
18,20
21,23
22,24
3,2
4,1
7,6
8,5
11,10
12,9
15,14
16,13
19,18
20,17
23,22
24,21
4,12
5,1
6,2
7,9
10,8
11,3
16,24
17,13
18,14
21,19
22,20
23,15
2,7
4,10
5,11
6,1
8,12
9,3
14,19
16,22
17,23
18,13
20,24
21,15
1,14
3,16
6,17
7,20
9,22
10,21
11,24
13,2
15,4
18,5
19,8
23,12
1,16
3,14
5,19
8,18
10,23
12,21
13,4
15,2
17,7
20,6
22,11
24,9
1,22
2,17
4,21
7,18
12,20
13,10
14,8
15,11
16,9
19,6
23,5
24,3
2,5
3,10
8,4
9,1
11,7
12,6
14,17
19,23
20,16
21,13
22,15
24,18
2,1
4,3
5,6
7,8
9,10
11,12
14,13
16,15
17,18
19,20
21,22
23,24
3,1
4,2
7,5
8,6
11,9
12,10
15,13
16,14
19,17
20,18
23,21
24,22
1,4
2,3
5,8
6,7
9,12
10,11
13,16
14,15
17,20
18,19
21,24
22,23